Lab2/PC/simulation/qsim/PC.msim.vcd
$comment
	File created using the following command:
		vcd file PC.msim.vcd -direction
$end
$date
	Fri Jan 27 14:05:11 2023
$end
$version
	ModelSim Version 10.1d
$end
$timescale
	1ps
$end
$scope module pc_vlg_vec_tst $end
$var reg 1 ! clk $end
$var reg 1 " clr $end
$var reg 32 # d [31:0] $end
$var reg 1 $ inc $end
$var reg 1 % ld $end
$var wire 1 & q [31] $end
$var wire 1 ' q [30] $end
$var wire 1 ( q [29] $end
$var wire 1 ) q [28] $end
$var wire 1 * q [27] $end
$var wire 1 + q [26] $end
$var wire 1 , q [25] $end
$var wire 1 - q [24] $end
$var wire 1 . q [23] $end
$var wire 1 / q [22] $end
$var wire 1 0 q [21] $end
$var wire 1 1 q [20] $end
$var wire 1 2 q [19] $end
$var wire 1 3 q [18] $end
$var wire 1 4 q [17] $end
$var wire 1 5 q [16] $end
$var wire 1 6 q [15] $end
$var wire 1 7 q [14] $end
$var wire 1 8 q [13] $end
$var wire 1 9 q [12] $end
$var wire 1 : q [11] $end
$var wire 1 ; q [10] $end
$var wire 1 < q [9] $end
$var wire 1 = q [8] $end
$var wire 1 > q [7] $end
$var wire 1 ? q [6] $end
$var wire 1 @ q [5] $end
$var wire 1 A q [4] $end
$var wire 1 B q [3] $end
$var wire 1 C q [2] $end
$var wire 1 D q [1] $end
$var wire 1 E q [0] $end
$var wire 1 F sampler $end
$scope module i1 $end
$var wire 1 G gnd $end
$var wire 1 H vcc $end
$var wire 1 I unknown $end
$var tri1 1 J devclrn $end
$var tri1 1 K devpor $end
$var tri1 1 L devoe $end
$var wire 1 M q[0]~output_o $end
$var wire 1 N q[1]~output_o $end
$var wire 1 O q[2]~output_o $end
$var wire 1 P q[3]~output_o $end
$var wire 1 Q q[4]~output_o $end
$var wire 1 R q[5]~output_o $end
$var wire 1 S q[6]~output_o $end
$var wire 1 T q[7]~output_o $end
$var wire 1 U q[8]~output_o $end
$var wire 1 V q[9]~output_o $end
$var wire 1 W q[10]~output_o $end
$var wire 1 X q[11]~output_o $end
$var wire 1 Y q[12]~output_o $end
$var wire 1 Z q[13]~output_o $end
$var wire 1 [ q[14]~output_o $end
$var wire 1 \ q[15]~output_o $end
$var wire 1 ] q[16]~output_o $end
$var wire 1 ^ q[17]~output_o $end
$var wire 1 _ q[18]~output_o $end
$var wire 1 ` q[19]~output_o $end
$var wire 1 a q[20]~output_o $end
$var wire 1 b q[21]~output_o $end
$var wire 1 c q[22]~output_o $end
$var wire 1 d q[23]~output_o $end
$var wire 1 e q[24]~output_o $end
$var wire 1 f q[25]~output_o $end
$var wire 1 g q[26]~output_o $end
$var wire 1 h q[27]~output_o $end
$var wire 1 i q[28]~output_o $end
$var wire 1 j q[29]~output_o $end
$var wire 1 k q[30]~output_o $end
$var wire 1 l q[31]~output_o $end
$var wire 1 m clk~input_o $end
$var wire 1 n clk~inputclkctrl_outclk $end
$var wire 1 o d[0]~input_o $end
$var wire 1 p reg0|Q[0]~feeder_combout $end
$var wire 1 q clr~input_o $end
$var wire 1 r clr~inputclkctrl_outclk $end
$var wire 1 s inc~input_o $end
$var wire 1 t ld~input_o $end
$var wire 1 u reg0|Q[0]~30_combout $end
$var wire 1 v d[1]~input_o $end
$var wire 1 w reg0|Q[1]~feeder_combout $end
$var wire 1 x reg0|Q[2]~31_combout $end
$var wire 1 y d[2]~input_o $end
$var wire 1 z reg0|Q[2]~32 $end
$var wire 1 { reg0|Q[3]~33_combout $end
$var wire 1 | d[3]~input_o $end
$var wire 1 } reg0|Q[3]~34 $end
$var wire 1 ~ reg0|Q[4]~35_combout $end
$var wire 1 !! d[4]~input_o $end
$var wire 1 "! reg0|Q[4]~36 $end
$var wire 1 #! reg0|Q[5]~37_combout $end
$var wire 1 $! d[5]~input_o $end
$var wire 1 %! reg0|Q[5]~38 $end
$var wire 1 &! reg0|Q[6]~39_combout $end
$var wire 1 '! d[6]~input_o $end
$var wire 1 (! reg0|Q[6]~40 $end
$var wire 1 )! reg0|Q[7]~41_combout $end
$var wire 1 *! d[7]~input_o $end
$var wire 1 +! reg0|Q[7]~42 $end
$var wire 1 ,! reg0|Q[8]~43_combout $end
$var wire 1 -! d[8]~input_o $end
$var wire 1 .! reg0|Q[8]~44 $end
$var wire 1 /! reg0|Q[9]~45_combout $end
$var wire 1 0! d[9]~input_o $end
$var wire 1 1! reg0|Q[9]~46 $end
$var wire 1 2! reg0|Q[10]~47_combout $end
$var wire 1 3! d[10]~input_o $end
$var wire 1 4! reg0|Q[10]~48 $end
$var wire 1 5! reg0|Q[11]~49_combout $end
$var wire 1 6! d[11]~input_o $end
$var wire 1 7! reg0|Q[11]~50 $end
$var wire 1 8! reg0|Q[12]~51_combout $end
$var wire 1 9! d[12]~input_o $end
$var wire 1 :! reg0|Q[12]~52 $end
$var wire 1 ;! reg0|Q[13]~53_combout $end
$var wire 1 <! d[13]~input_o $end
$var wire 1 =! reg0|Q[13]~54 $end
$var wire 1 >! reg0|Q[14]~55_combout $end
$var wire 1 ?! d[14]~input_o $end
$var wire 1 @! reg0|Q[14]~56 $end
$var wire 1 A! reg0|Q[15]~57_combout $end
$var wire 1 B! d[15]~input_o $end
$var wire 1 C! reg0|Q[15]~58 $end
$var wire 1 D! reg0|Q[16]~59_combout $end
$var wire 1 E! d[16]~input_o $end
$var wire 1 F! reg0|Q[16]~60 $end
$var wire 1 G! reg0|Q[17]~61_combout $end
$var wire 1 H! d[17]~input_o $end
$var wire 1 I! reg0|Q[17]~62 $end
$var wire 1 J! reg0|Q[18]~63_combout $end
$var wire 1 K! d[18]~input_o $end
$var wire 1 L! reg0|Q[18]~64 $end
$var wire 1 M! reg0|Q[19]~65_combout $end
$var wire 1 N! d[19]~input_o $end
$var wire 1 O! reg0|Q[19]~66 $end
$var wire 1 P! reg0|Q[20]~67_combout $end
$var wire 1 Q! d[20]~input_o $end
$var wire 1 R! reg0|Q[20]~68 $end
$var wire 1 S! reg0|Q[21]~69_combout $end
$var wire 1 T! d[21]~input_o $end
$var wire 1 U! reg0|Q[21]~70 $end
$var wire 1 V! reg0|Q[22]~71_combout $end
$var wire 1 W! d[22]~input_o $end
$var wire 1 X! reg0|Q[22]~72 $end
$var wire 1 Y! reg0|Q[23]~73_combout $end
$var wire 1 Z! d[23]~input_o $end
$var wire 1 [! reg0|Q[23]~74 $end
$var wire 1 \! reg0|Q[24]~75_combout $end
$var wire 1 ]! d[24]~input_o $end
$var wire 1 ^! reg0|Q[24]~76 $end
$var wire 1 _! reg0|Q[25]~77_combout $end
$var wire 1 `! d[25]~input_o $end
$var wire 1 a! reg0|Q[25]~78 $end
$var wire 1 b! reg0|Q[26]~79_combout $end
$var wire 1 c! d[26]~input_o $end
$var wire 1 d! reg0|Q[26]~80 $end
$var wire 1 e! reg0|Q[27]~81_combout $end
$var wire 1 f! d[27]~input_o $end
$var wire 1 g! reg0|Q[27]~82 $end
$var wire 1 h! reg0|Q[28]~83_combout $end
$var wire 1 i! d[28]~input_o $end
$var wire 1 j! reg0|Q[28]~84 $end
$var wire 1 k! reg0|Q[29]~85_combout $end
$var wire 1 l! d[29]~input_o $end
$var wire 1 m! reg0|Q[29]~86 $end
$var wire 1 n! reg0|Q[30]~87_combout $end
$var wire 1 o! d[30]~input_o $end
$var wire 1 p! reg0|Q[30]~88 $end
$var wire 1 q! reg0|Q[31]~89_combout $end
$var wire 1 r! d[31]~input_o $end
$var wire 1 s! reg0|Q [31] $end
$var wire 1 t! reg0|Q [30] $end
$var wire 1 u! reg0|Q [29] $end
$var wire 1 v! reg0|Q [28] $end
$var wire 1 w! reg0|Q [27] $end
$var wire 1 x! reg0|Q [26] $end
$var wire 1 y! reg0|Q [25] $end
$var wire 1 z! reg0|Q [24] $end
$var wire 1 {! reg0|Q [23] $end
$var wire 1 |! reg0|Q [22] $end
$var wire 1 }! reg0|Q [21] $end
$var wire 1 ~! reg0|Q [20] $end
$var wire 1 !" reg0|Q [19] $end
$var wire 1 "" reg0|Q [18] $end
$var wire 1 #" reg0|Q [17] $end
$var wire 1 $" reg0|Q [16] $end
$var wire 1 %" reg0|Q [15] $end
$var wire 1 &" reg0|Q [14] $end
$var wire 1 '" reg0|Q [13] $end
$var wire 1 (" reg0|Q [12] $end
$var wire 1 )" reg0|Q [11] $end
$var wire 1 *" reg0|Q [10] $end
$var wire 1 +" reg0|Q [9] $end
$var wire 1 ," reg0|Q [8] $end
$var wire 1 -" reg0|Q [7] $end
$var wire 1 ." reg0|Q [6] $end
$var wire 1 /" reg0|Q [5] $end
$var wire 1 0" reg0|Q [4] $end
$var wire 1 1" reg0|Q [3] $end
$var wire 1 2" reg0|Q [2] $end
$var wire 1 3" reg0|Q [1] $end
$var wire 1 4" reg0|Q [0] $end
$upscope $end
$upscope $end
$enddefinitions $end
#0
$dumpvars
0!
0"
b101 #
1$
1%
0E
0D
0C
0B
0A
0@
0?
0>
0=
0<
0;
0:
09
08
07
06
05
04
03
02
01
00
0/
0.
0-
0,
0+
0*
0)
0(
0'
0&
xF
0G
1H
xI
1J
1K
1L
0M
0N
0O
0P
0Q
0R
0S
0T
0U
0V
0W
0X
0Y
0Z
0[
0\
0]
0^
0_
0`
0a
0b
0c
0d
0e
0f
0g
0h
0i
0j
0k
0l
0m
0n
1o
1p
0q
0r
1s
1t
0u
0v
0w
1x
1y
0z
0{
0|
1}
0~
0!!
0"!
0#!
0$!
1%!
0&!
0'!
0(!
0)!
0*!
1+!
0,!
0-!
0.!
0/!
00!
11!
02!
03!
04!
05!
06!
17!
08!
09!
0:!
0;!
0<!
1=!
0>!
0?!
0@!
0A!
0B!
1C!
0D!
0E!
0F!
0G!
0H!
1I!
0J!
0K!
0L!
0M!
0N!
1O!
0P!
0Q!
0R!
0S!
0T!
1U!
0V!
0W!
0X!
0Y!
0Z!
1[!
0\!
0]!
0^!
0_!
0`!
1a!
0b!
0c!
0d!
0e!
0f!
1g!
0h!
0i!
0j!
0k!
0l!
1m!
0n!
0o!
0p!
0q!
0r!
04"
03"
02"
01"
00"
0/"
0."
0-"
0,"
0+"
0*"
0)"
0("
0'"
0&"
0%"
0$"
0#"
0""
0!"
0~!
0}!
0|!
0{!
0z!
0y!
0x!
0w!
0v!
0u!
0t!
0s!
$end
#10000
1!
1m
1n
0F
12"
1z
0x
1O
1C
1{
#20000
0!
0m
0n
1F
#30000
1!
1m
1n
0F
11"
02"
0}
0{
0z
1x
1P
0O
1B
0C
1~
1}
1{
0~
#40000
0!
0m
0n
1F
#50000
0%
1!
0t
1m
1n
0F
#60000
0!
0m
0n
1F
#70000
1%
1!
1t
1m
1n
0F
12"
1z
0x
1O
1C
0}
0{
1~
#80000
0!
0m
0n
1F
#90000
1!
1m
1n
0F
10"
01"
02"
1"!
0~
1}
1{
0z
1x
1Q
0P
0O
1A
0B
0C
1#!
0"!
1~
0{
0#!
#100000
0$
0!
0s
0m
0n
1F
1u
#110000
1!
1m
1n
0F
00"
12"
14"
0~
1z
0x
0Q
1O
1M
0A
1C
1E
1{
#120000
0!
0m
0n
1F
#130000
1!
1m
1n
0F
#140000
1"
0!
1q
0m
1r
0n
1F
04"
02"
0z
1x
0M
0O
0E
0C
0{
#150000
0"
1!
0q
1m
0r
1n
0F
#160000
0!
0m
0n
1F
#170000
1$
1!
1s
1m
1n
0F
0u
12"
14"
1z
0x
1O
1M
1C
1E
1{
#180000
0!
0m
0n
1F
#190000
1!
1m
1n
0F
11"
02"
0}
0{
0z
1x
1P
0O
1B
0C
1~
1}
1{
0~
#200000
0!
0m
0n
1F
#210000
0$
1!
0s
1m
1n
0F
1u
01"
12"
0{
1z
0x
0P
1O
0B
1C
1{
#220000
0!
0m
0n
1F
#230000
1!
1m
1n
0F
#240000
0!
0m
0n
1F
#250000
1!
1m
1n
0F
#260000
0!
0m
0n
1F
#270000
1!
1m
1n
0F
#280000
0!
0m
0n
1F
#290000
1!
1m
1n
0F
