Lab1/simulation/qsim/light.msim.vcd
$comment
	File created using the following command:
		vcd file light.msim.vcd -direction
$end
$date
	Fri Jan 20 10:13:07 2023
$end
$version
	ModelSim Version 10.1d
$end
$timescale
	1ps
$end
$scope module light_vlg_vec_tst $end
$var reg 1 ! x1 $end
$var reg 1 " x2 $end
$var wire 1 # f $end
$var wire 1 $ sampler $end
$scope module i1 $end
$var wire 1 % gnd $end
$var wire 1 & vcc $end
$var wire 1 ' unknown $end
$var tri1 1 ( devclrn $end
$var tri1 1 ) devpor $end
$var tri1 1 * devoe $end
$var wire 1 + f~output_o $end
$var wire 1 , x2~input_o $end
$var wire 1 - x1~input_o $end
$var wire 1 . f~0_combout $end
$upscope $end
$upscope $end
$enddefinitions $end
#0
$dumpvars
0!
0"
x#
x$
0%
1&
x'
1(
1)
1*
x+
0,
0-
x.
$end
#3483
0.
#6721
0+
0#
#50000
1"
0$
#50660
1,
#53884
1.
#57157
1+
1#
#100000
1!
0"
1$
#100660
1-
#100766
0,
#103550
0.
#104242
1.
#150000
1"
0$
#150660
1,
#153891
0.
#157129
0+
0#
