Lab3/Adders/simulation/qsim/alu.msim.vcd
$comment
	File created using the following command:
		vcd file alu.msim.vcd -direction
$end
$date
	Tue Feb 14 19:41:45 2023
$end
$version
	ModelSim Version 10.1d
$end
$timescale
	1ps
$end
$scope module alu_vlg_vec_tst $end
$var reg 32 ! a [31:0] $end
$var reg 32 " b [31:0] $end
$var reg 3 # op [2:0] $end
$var wire 1 $ cout $end
$var wire 1 % result [31] $end
$var wire 1 & result [30] $end
$var wire 1 ' result [29] $end
$var wire 1 ( result [28] $end
$var wire 1 ) result [27] $end
$var wire 1 * result [26] $end
$var wire 1 + result [25] $end
$var wire 1 , result [24] $end
$var wire 1 - result [23] $end
$var wire 1 . result [22] $end
$var wire 1 / result [21] $end
$var wire 1 0 result [20] $end
$var wire 1 1 result [19] $end
$var wire 1 2 result [18] $end
$var wire 1 3 result [17] $end
$var wire 1 4 result [16] $end
$var wire 1 5 result [15] $end
$var wire 1 6 result [14] $end
$var wire 1 7 result [13] $end
$var wire 1 8 result [12] $end
$var wire 1 9 result [11] $end
$var wire 1 : result [10] $end
$var wire 1 ; result [9] $end
$var wire 1 < result [8] $end
$var wire 1 = result [7] $end
$var wire 1 > result [6] $end
$var wire 1 ? result [5] $end
$var wire 1 @ result [4] $end
$var wire 1 A result [3] $end
$var wire 1 B result [2] $end
$var wire 1 C result [1] $end
$var wire 1 D result [0] $end
$var wire 1 E zero $end
$var wire 1 F sampler $end
$scope module i1 $end
$var wire 1 G gnd $end
$var wire 1 H vcc $end
$var wire 1 I unknown $end
$var tri1 1 J devclrn $end
$var tri1 1 K devpor $end
$var tri1 1 L devoe $end
$var wire 1 M sub0|stage0|stage0|stage1|s~combout $end
$var wire 1 N add0|stage0|stage0|stage0|Cout~0_combout $end
$var wire 1 O sub0|stage0|stage0|stage2|s~0_combout $end
$var wire 1 P sub0|stage0|stage0|stage2|s~combout $end
$var wire 1 Q Mux29~0_combout $end
$var wire 1 R add0|stage0|stage0|stage2|s~combout $end
$var wire 1 S Mux29~2_combout $end
$var wire 1 T add0|stage0|stage0|stage2|Cout~0_combout $end
$var wire 1 U add0|stage0|stage0|stage2|Cout~1_combout $end
$var wire 1 V sub0|stage0|stage1|stage0|s~combout $end
$var wire 1 W sub0|stage0|stage1|stage1|s~combout $end
$var wire 1 X Mux26~0_combout $end
$var wire 1 Y sub0|stage0|stage1|stage3|s~combout $end
$var wire 1 Z sub0|stage0|stage2|stage0|s~combout $end
$var wire 1 [ Mux23~0_combout $end
$var wire 1 \ sub0|stage0|stage3|stage0|s~combout $end
$var wire 1 ] Mux19~0_combout $end
$var wire 1 ^ add0|stage0|stage2|stage3|Cout~0_combout $end
$var wire 1 _ sub0|stage0|stage3|stage1|s~combout $end
$var wire 1 ` add0|stage0|stage3|stage1|Cout~0_combout $end
$var wire 1 a sub0|stage0|stage3|stage2|Cout~0_combout $end
$var wire 1 b add0|stage0|stage3|stage2|Cout~0_combout $end
$var wire 1 c sub0|stage1|stage0|stage0|Cout~0_combout $end
$var wire 1 d sub0|stage1|stage0|stage2|Cout~0_combout $end
$var wire 1 e sub0|stage1|stage0|stage3|s~combout $end
$var wire 1 f Mux12~0_combout $end
$var wire 1 g sub0|stage1|stage1|stage0|s~combout $end
$var wire 1 h Mux11~0_combout $end
$var wire 1 i sub0|stage1|stage1|stage1|s~combout $end
$var wire 1 j sub0|stage1|stage1|stage3|s~combout $end
$var wire 1 k Mux8~0_combout $end
$var wire 1 l sub0|stage1|stage2|stage0|s~combout $end
$var wire 1 m Mux7~0_combout $end
$var wire 1 n sub0|stage1|stage2|stage1|Cout~0_combout $end
$var wire 1 o sub0|stage1|stage2|stage2|s~combout $end
$var wire 1 p Mux5~0_combout $end
$var wire 1 q sub0|stage1|stage2|stage2|Cout~0_combout $end
$var wire 1 r sub0|stage1|stage2|stage3|s~combout $end
$var wire 1 s Mux4~0_combout $end
$var wire 1 t sub0|stage1|stage3|stage2|s~combout $end
$var wire 1 u Mux1~0_combout $end
$var wire 1 v Equal0~2_combout $end
$var wire 1 w Equal0~3_combout $end
$var wire 1 x Mux9~3_combout $end
$var wire 1 y Mux10~3_combout $end
$var wire 1 z Mux24~3_combout $end
$var wire 1 { Mux26~3_combout $end
$var wire 1 | Mux28~3_combout $end
$var wire 1 } b[1]~input_o $end
$var wire 1 ~ a[4]~input_o $end
$var wire 1 !! b[5]~input_o $end
$var wire 1 "! b[7]~input_o $end
$var wire 1 #! a[10]~input_o $end
$var wire 1 $! b[9]~input_o $end
$var wire 1 %! result[0]~output_o $end
$var wire 1 &! result[1]~output_o $end
$var wire 1 '! result[2]~output_o $end
$var wire 1 (! result[3]~output_o $end
$var wire 1 )! result[4]~output_o $end
$var wire 1 *! result[5]~output_o $end
$var wire 1 +! result[6]~output_o $end
$var wire 1 ,! result[7]~output_o $end
$var wire 1 -! result[8]~output_o $end
$var wire 1 .! result[9]~output_o $end
$var wire 1 /! result[10]~output_o $end
$var wire 1 0! result[11]~output_o $end
$var wire 1 1! result[12]~output_o $end
$var wire 1 2! result[13]~output_o $end
$var wire 1 3! result[14]~output_o $end
$var wire 1 4! result[15]~output_o $end
$var wire 1 5! result[16]~output_o $end
$var wire 1 6! result[17]~output_o $end
$var wire 1 7! result[18]~output_o $end
$var wire 1 8! result[19]~output_o $end
$var wire 1 9! result[20]~output_o $end
$var wire 1 :! result[21]~output_o $end
$var wire 1 ;! result[22]~output_o $end
$var wire 1 <! result[23]~output_o $end
$var wire 1 =! result[24]~output_o $end
$var wire 1 >! result[25]~output_o $end
$var wire 1 ?! result[26]~output_o $end
$var wire 1 @! result[27]~output_o $end
$var wire 1 A! result[28]~output_o $end
$var wire 1 B! result[29]~output_o $end
$var wire 1 C! result[30]~output_o $end
$var wire 1 D! result[31]~output_o $end
$var wire 1 E! zero~output_o $end
$var wire 1 F! cout~output_o $end
$var wire 1 G! a[1]~input_o $end
$var wire 1 H! op[0]~input_o $end
$var wire 1 I! op[1]~input_o $end
$var wire 1 J! Mux31~1_combout $end
$var wire 1 K! a[0]~input_o $end
$var wire 1 L! Mux31~0_combout $end
$var wire 1 M! b[0]~input_o $end
$var wire 1 N! Mux31~2_combout $end
$var wire 1 O! op[2]~input_o $end
$var wire 1 P! Mux31~3_combout $end
$var wire 1 Q! Mux30~0_combout $end
$var wire 1 R! Mux30~1_combout $end
$var wire 1 S! Mux30~3_combout $end
$var wire 1 T! Mux30~4_combout $end
$var wire 1 U! Mux30~2_combout $end
$var wire 1 V! a[2]~input_o $end
$var wire 1 W! b[2]~input_o $end
$var wire 1 X! Mux29~3_combout $end
$var wire 1 Y! a[3]~input_o $end
$var wire 1 Z! Mux29~1_combout $end
$var wire 1 [! Mux29~4_combout $end
$var wire 1 \! sub0|stage0|stage0|stage0|Cout~0_combout $end
$var wire 1 ]! sub0|stage0|stage0|stage1|Cout~0_combout $end
$var wire 1 ^! sub0|stage0|stage0|stage2|Cout~0_combout $end
$var wire 1 _! sub0|stage0|stage0|stage3|s~combout $end
$var wire 1 `! Mux28~0_combout $end
$var wire 1 a! Mux28~1_combout $end
$var wire 1 b! b[3]~input_o $end
$var wire 1 c! Mux28~4_combout $end
$var wire 1 d! Mux28~2_combout $end
$var wire 1 e! a[5]~input_o $end
$var wire 1 f! Mux27~0_combout $end
$var wire 1 g! Mux27~1_combout $end
$var wire 1 h! result_s~0_combout $end
$var wire 1 i! add0|stage0|stage0|stage3|Cout~0_combout $end
$var wire 1 j! Mux27~2_combout $end
$var wire 1 k! b[4]~input_o $end
$var wire 1 l! Mux27~3_combout $end
$var wire 1 m! Mux27~4_combout $end
$var wire 1 n! add0|stage0|stage1|stage0|Cout~0_combout $end
$var wire 1 o! Mux26~4_combout $end
$var wire 1 p! a[6]~input_o $end
$var wire 1 q! Mux26~1_combout $end
$var wire 1 r! Mux26~2_combout $end
$var wire 1 s! b[6]~input_o $end
$var wire 1 t! Mux25~3_combout $end
$var wire 1 u! add0|stage0|stage1|stage1|Cout~0_combout $end
$var wire 1 v! Mux25~4_combout $end
$var wire 1 w! a[7]~input_o $end
$var wire 1 x! sub0|stage0|stage0|stage3|Cout~0_combout $end
$var wire 1 y! sub0|stage0|stage1|stage0|Cout~0_combout $end
$var wire 1 z! sub0|stage0|stage1|stage1|Cout~0_combout $end
$var wire 1 {! sub0|stage0|stage1|stage2|s~combout $end
$var wire 1 |! Mux25~0_combout $end
$var wire 1 }! Mux25~1_combout $end
$var wire 1 ~! Mux25~2_combout $end
$var wire 1 !" Mux24~0_combout $end
$var wire 1 "" a[8]~input_o $end
$var wire 1 #" Mux24~1_combout $end
$var wire 1 $" add0|stage0|stage1|stage2|Cout~0_combout $end
$var wire 1 %" Mux24~4_combout $end
$var wire 1 &" Mux24~2_combout $end
$var wire 1 '" b[8]~input_o $end
$var wire 1 (" Mux23~3_combout $end
$var wire 1 )" Mux23~4_combout $end
$var wire 1 *" a[9]~input_o $end
$var wire 1 +" Mux23~1_combout $end
$var wire 1 ," Mux23~2_combout $end
$var wire 1 -" Mux22~3_combout $end
$var wire 1 ." Mux22~4_combout $end
$var wire 1 /" sub0|stage0|stage1|stage2|Cout~0_combout $end
$var wire 1 0" sub0|stage0|stage1|stage3|Cout~0_combout $end
$var wire 1 1" sub0|stage0|stage2|stage0|Cout~0_combout $end
$var wire 1 2" sub0|stage0|stage2|stage1|s~combout $end
$var wire 1 3" Mux22~0_combout $end
$var wire 1 4" Mux22~1_combout $end
$var wire 1 5" Mux22~2_combout $end
$var wire 1 6" b[10]~input_o $end
$var wire 1 7" Mux21~3_combout $end
$var wire 1 8" add0|stage0|stage1|stage3|Cout~0_combout $end
$var wire 1 9" add0|stage0|stage2|stage0|Cout~0_combout $end
$var wire 1 :" add0|stage0|stage2|stage1|Cout~0_combout $end
$var wire 1 ;" Mux21~4_combout $end
$var wire 1 <" sub0|stage0|stage2|stage1|Cout~0_combout $end
$var wire 1 =" sub0|stage0|stage2|stage2|s~combout $end
$var wire 1 >" Mux21~0_combout $end
$var wire 1 ?" a[11]~input_o $end
$var wire 1 @" Mux21~1_combout $end
$var wire 1 A" Mux21~2_combout $end
$var wire 1 B" sub0|stage0|stage2|stage2|Cout~0_combout $end
$var wire 1 C" b[11]~input_o $end
$var wire 1 D" sub0|stage0|stage2|stage3|s~combout $end
$var wire 1 E" Mux20~0_combout $end
$var wire 1 F" a[12]~input_o $end
$var wire 1 G" Mux20~1_combout $end
$var wire 1 H" add0|stage0|stage2|stage2|Cout~0_combout $end
$var wire 1 I" Mux20~3_combout $end
$var wire 1 J" Mux20~4_combout $end
$var wire 1 K" Mux20~2_combout $end
$var wire 1 L" Mux19~3_combout $end
$var wire 1 M" Mux19~4_combout $end
$var wire 1 N" a[13]~input_o $end
$var wire 1 O" Mux19~1_combout $end
$var wire 1 P" Mux19~2_combout $end
$var wire 1 Q" a[14]~input_o $end
$var wire 1 R" Mux18~0_combout $end
$var wire 1 S" Mux18~1_combout $end
$var wire 1 T" b[12]~input_o $end
$var wire 1 U" add0|stage0|stage3|stage0|Cout~0_combout $end
$var wire 1 V" b[13]~input_o $end
$var wire 1 W" Mux18~3_combout $end
$var wire 1 X" Mux18~4_combout $end
$var wire 1 Y" Mux18~2_combout $end
$var wire 1 Z" sub0|stage0|stage2|stage3|Cout~0_combout $end
$var wire 1 [" sub0|stage0|stage3|stage0|Cout~0_combout $end
$var wire 1 \" sub0|stage0|stage3|stage1|Cout~0_combout $end
$var wire 1 ]" b[14]~input_o $end
$var wire 1 ^" sub0|stage0|stage3|stage2|s~combout $end
$var wire 1 _" Mux17~0_combout $end
$var wire 1 `" a[15]~input_o $end
$var wire 1 a" Mux17~1_combout $end
$var wire 1 b" Mux17~3_combout $end
$var wire 1 c" Mux17~4_combout $end
$var wire 1 d" Mux17~2_combout $end
$var wire 1 e" a[16]~input_o $end
$var wire 1 f" b[15]~input_o $end
$var wire 1 g" sub0|stage0|stage3|stage3|s~combout $end
$var wire 1 h" Mux16~0_combout $end
$var wire 1 i" Mux16~1_combout $end
$var wire 1 j" Mux16~3_combout $end
$var wire 1 k" Mux16~4_combout $end
$var wire 1 l" Mux16~2_combout $end
$var wire 1 m" b[16]~input_o $end
$var wire 1 n" add0|stage0|stage3|stage3|Cout~0_combout $end
$var wire 1 o" Mux15~2_combout $end
$var wire 1 p" Mux15~3_combout $end
$var wire 1 q" sub0|stage0|stage3|stage3|Cout~0_combout $end
$var wire 1 r" sub0|stage1|stage0|stage0|s~combout $end
$var wire 1 s" Mux15~0_combout $end
$var wire 1 t" a[17]~input_o $end
$var wire 1 u" Mux15~1_combout $end
$var wire 1 v" Mux15~4_combout $end
$var wire 1 w" add0|stage1|stage0|stage0|Cout~0_combout $end
$var wire 1 x" b[17]~input_o $end
$var wire 1 y" Mux14~3_combout $end
$var wire 1 z" Mux14~4_combout $end
$var wire 1 {" sub0|stage1|stage0|stage1|s~combout $end
$var wire 1 |" Mux14~0_combout $end
$var wire 1 }" a[18]~input_o $end
$var wire 1 ~" Mux14~1_combout $end
$var wire 1 !# Mux14~2_combout $end
$var wire 1 "# b[18]~input_o $end
$var wire 1 ## sub0|stage1|stage0|stage1|Cout~0_combout $end
$var wire 1 $# sub0|stage1|stage0|stage2|s~combout $end
$var wire 1 %# Mux13~0_combout $end
$var wire 1 &# Mux13~1_combout $end
$var wire 1 '# Mux13~3_combout $end
$var wire 1 (# add0|stage1|stage0|stage1|Cout~0_combout $end
$var wire 1 )# Mux13~4_combout $end
$var wire 1 *# Mux13~2_combout $end
$var wire 1 +# b[19]~input_o $end
$var wire 1 ,# a[19]~input_o $end
$var wire 1 -# Mux12~3_combout $end
$var wire 1 .# add0|stage1|stage0|stage2|Cout~0_combout $end
$var wire 1 /# Mux12~4_combout $end
$var wire 1 0# a[20]~input_o $end
$var wire 1 1# Mux12~1_combout $end
$var wire 1 2# Mux12~2_combout $end
$var wire 1 3# a[21]~input_o $end
$var wire 1 4# Mux11~1_combout $end
$var wire 1 5# add0|stage1|stage0|stage3|Cout~0_combout $end
$var wire 1 6# b[20]~input_o $end
$var wire 1 7# Mux11~3_combout $end
$var wire 1 8# Mux11~4_combout $end
$var wire 1 9# Mux11~2_combout $end
$var wire 1 :# add0|stage1|stage1|stage0|Cout~0_combout $end
$var wire 1 ;# Mux10~4_combout $end
$var wire 1 <# Mux10~0_combout $end
$var wire 1 =# Mux10~1_combout $end
$var wire 1 ># Mux10~2_combout $end
$var wire 1 ?# sub0|stage1|stage0|stage3|Cout~0_combout $end
$var wire 1 @# sub0|stage1|stage1|stage0|Cout~0_combout $end
$var wire 1 A# b[21]~input_o $end
$var wire 1 B# sub0|stage1|stage1|stage1|Cout~0_combout $end
$var wire 1 C# b[22]~input_o $end
$var wire 1 D# a[22]~input_o $end
$var wire 1 E# sub0|stage1|stage1|stage2|s~combout $end
$var wire 1 F# Mux9~0_combout $end
$var wire 1 G# a[23]~input_o $end
$var wire 1 H# Mux9~1_combout $end
$var wire 1 I# add0|stage1|stage1|stage1|Cout~0_combout $end
$var wire 1 J# Mux9~4_combout $end
$var wire 1 K# Mux9~2_combout $end
$var wire 1 L# a[24]~input_o $end
$var wire 1 M# Mux8~1_combout $end
$var wire 1 N# b[23]~input_o $end
$var wire 1 O# Mux8~3_combout $end
$var wire 1 P# add0|stage1|stage1|stage2|Cout~0_combout $end
$var wire 1 Q# Mux8~4_combout $end
$var wire 1 R# Mux8~2_combout $end
$var wire 1 S# add0|stage1|stage1|stage3|Cout~0_combout $end
$var wire 1 T# b[24]~input_o $end
$var wire 1 U# Mux7~3_combout $end
$var wire 1 V# Mux7~4_combout $end
$var wire 1 W# a[25]~input_o $end
$var wire 1 X# Mux7~1_combout $end
$var wire 1 Y# Mux7~2_combout $end
$var wire 1 Z# sub0|stage1|stage1|stage2|Cout~0_combout $end
$var wire 1 [# sub0|stage1|stage1|stage3|Cout~0_combout $end
$var wire 1 \# sub0|stage1|stage2|stage0|Cout~0_combout $end
$var wire 1 ]# b[25]~input_o $end
$var wire 1 ^# sub0|stage1|stage2|stage1|s~combout $end
$var wire 1 _# Mux6~0_combout $end
$var wire 1 `# a[26]~input_o $end
$var wire 1 a# Mux6~1_combout $end
$var wire 1 b# Mux6~3_combout $end
$var wire 1 c# add0|stage1|stage2|stage0|Cout~0_combout $end
$var wire 1 d# Mux6~4_combout $end
$var wire 1 e# Mux6~2_combout $end
$var wire 1 f# add0|stage1|stage2|stage1|Cout~0_combout $end
$var wire 1 g# b[26]~input_o $end
$var wire 1 h# Mux5~3_combout $end
$var wire 1 i# Mux5~4_combout $end
$var wire 1 j# a[27]~input_o $end
$var wire 1 k# Mux5~1_combout $end
$var wire 1 l# Mux5~2_combout $end
$var wire 1 m# b[27]~input_o $end
$var wire 1 n# Mux4~3_combout $end
$var wire 1 o# add0|stage1|stage2|stage2|Cout~0_combout $end
$var wire 1 p# Mux4~4_combout $end
$var wire 1 q# a[28]~input_o $end
$var wire 1 r# Mux4~1_combout $end
$var wire 1 s# Mux4~2_combout $end
$var wire 1 t# add0|stage1|stage2|stage3|Cout~0_combout $end
$var wire 1 u# b[28]~input_o $end
$var wire 1 v# Mux3~3_combout $end
$var wire 1 w# Mux3~4_combout $end
$var wire 1 x# sub0|stage1|stage2|stage3|Cout~0_combout $end
$var wire 1 y# sub0|stage1|stage3|stage0|s~combout $end
$var wire 1 z# Mux3~0_combout $end
$var wire 1 {# a[29]~input_o $end
$var wire 1 |# Mux3~1_combout $end
$var wire 1 }# Mux3~2_combout $end
$var wire 1 ~# b[29]~input_o $end
$var wire 1 !$ Mux2~3_combout $end
$var wire 1 "$ add0|stage1|stage3|stage0|Cout~0_combout $end
$var wire 1 #$ Mux2~4_combout $end
$var wire 1 $$ a[30]~input_o $end
$var wire 1 %$ sub0|stage1|stage3|stage0|Cout~0_combout $end
$var wire 1 &$ sub0|stage1|stage3|stage1|s~combout $end
$var wire 1 '$ Mux2~0_combout $end
$var wire 1 ($ Mux2~1_combout $end
$var wire 1 )$ Mux2~2_combout $end
$var wire 1 *$ a[31]~input_o $end
$var wire 1 +$ Mux1~1_combout $end
$var wire 1 ,$ Mux1~3_combout $end
$var wire 1 -$ add0|stage1|stage3|stage1|Cout~0_combout $end
$var wire 1 .$ Mux1~4_combout $end
$var wire 1 /$ Mux1~2_combout $end
$var wire 1 0$ b[30]~input_o $end
$var wire 1 1$ sub0|stage1|stage3|stage1|Cout~0_combout $end
$var wire 1 2$ sub0|stage1|stage3|stage2|Cout~0_combout $end
$var wire 1 3$ b[31]~input_o $end
$var wire 1 4$ Mux0~4_combout $end
$var wire 1 5$ Mux0~5_combout $end
$var wire 1 6$ Mux0~7_combout $end
$var wire 1 7$ add0|stage1|stage3|stage2|Cout~0_combout $end
$var wire 1 8$ Mux0~2_combout $end
$var wire 1 9$ Mux0~3_combout $end
$var wire 1 :$ Mux0~6_combout $end
$var wire 1 ;$ Equal0~9_combout $end
$var wire 1 <$ Equal0~10_combout $end
$var wire 1 =$ Equal0~8_combout $end
$var wire 1 >$ Equal0~4_combout $end
$var wire 1 ?$ Equal0~5_combout $end
$var wire 1 @$ Equal0~1_combout $end
$var wire 1 A$ Equal0~0_combout $end
$var wire 1 B$ Equal0~6_combout $end
$var wire 1 C$ Equal0~7_combout $end
$var wire 1 D$ Equal0~11_combout $end
$var wire 1 E$ Mux32~4_combout $end
$var wire 1 F$ Mux32~2_combout $end
$var wire 1 G$ Mux32~3_combout $end
$upscope $end
$upscope $end
$enddefinitions $end
#0
$dumpvars
b10 !
b10 "
b0 #
x$
xD
xC
xB
xA
x@
x?
x>
x=
x<
x;
x:
x9
x8
x7
x6
x5
x4
x3
x2
x1
x0
x/
x.
x-
x,
x+
x*
x)
x(
x'
x&
x%
xE
xF
0G
1H
xI
1J
1K
1L
xM
xN
xO
xP
xQ
xR
xS
xT
xU
xV
xW
xX
xY
xZ
x[
x\
x]
x^
x_
x`
xa
xb
xc
xd
xe
xf
xg
xh
xi
xj
xk
xl
xm
xn
xo
xp
xq
xr
xs
xt
xu
xv
xw
xx
xy
xz
x{
x|
1}
0~
0!!
0"!
0#!
0$!
x%!
x&!
x'!
x(!
x)!
x*!
x+!
x,!
x-!
x.!
x/!
x0!
x1!
x2!
x3!
x4!
x5!
x6!
x7!
x8!
x9!
x:!
x;!
x<!
x=!
x>!
x?!
x@!
xA!
xB!
xC!
xD!
xE!
xF!
1G!
0H!
0I!
xJ!
0K!
xL!
0M!
xN!
0O!
xP!
xQ!
xR!
xS!
xT!
xU!
0V!
0W!
xX!
0Y!
xZ!
x[!
x\!
x]!
x^!
x_!
x`!
xa!
0b!
xc!
xd!
0e!
xf!
xg!
xh!
xi!
xj!
0k!
xl!
xm!
xn!
xo!
0p!
xq!
xr!
0s!
xt!
xu!
xv!
0w!
xx!
xy!
xz!
x{!
x|!
x}!
x~!
x!"
0""
x#"
x$"
x%"
x&"
0'"
x("
x)"
0*"
x+"
x,"
x-"
x."
x/"
x0"
x1"
x2"
x3"
x4"
x5"
06"
x7"
x8"
x9"
x:"
x;"
x<"
x="
x>"
0?"
x@"
xA"
xB"
0C"
xD"
xE"
0F"
xG"
xH"
xI"
xJ"
xK"
xL"
xM"
0N"
xO"
xP"
0Q"
xR"
xS"
0T"
xU"
0V"
xW"
xX"
xY"
xZ"
x["
x\"
0]"
x^"
x_"
0`"
xa"
xb"
xc"
xd"
0e"
0f"
xg"
xh"
xi"
xj"
xk"
xl"
0m"
xn"
xo"
xp"
xq"
xr"
xs"
0t"
xu"
xv"
xw"
0x"
xy"
xz"
x{"
x|"
0}"
x~"
x!#
0"#
x##
x$#
x%#
x&#
x'#
x(#
x)#
x*#
0+#
0,#
x-#
x.#
x/#
00#
x1#
x2#
03#
x4#
x5#
06#
x7#
x8#
x9#
x:#
x;#
x<#
x=#
x>#
x?#
x@#
0A#
xB#
0C#
0D#
xE#
xF#
0G#
xH#
xI#
xJ#
xK#
0L#
xM#
0N#
xO#
xP#
xQ#
xR#
xS#
0T#
xU#
xV#
0W#
xX#
xY#
xZ#
x[#
x\#
0]#
x^#
x_#
0`#
xa#
xb#
xc#
xd#
xe#
xf#
0g#
xh#
xi#
0j#
xk#
xl#
0m#
xn#
xo#
xp#
0q#
xr#
xs#
xt#
0u#
xv#
xw#
xx#
xy#
xz#
0{#
x|#
x}#
0~#
x!$
x"$
x#$
0$$
x%$
x&$
x'$
x($
x)$
0*$
x+$
x,$
x-$
x.$
x/$
00$
x1$
x2$
03$
x4$
x5$
x6$
x7$
x8$
x9$
x:$
x;$
x<$
x=$
x>$
x?$
x@$
xA$
xB$
xC$
xD$
xE$
xF$
xG$
$end
#1467
0N
#3468
0F$
#3482
0`
#3634
0L!
#3722
0f#
#3724
0f!
#3725
0E$
#3730
0L"
#3778
04$
#3791
0h!
#3803
0n!
#3813
0W"
#3817
0-$
#3826
0-"
#3827
0:"
#3836
0G$
#3941
0\!
#3967
0^
#3977
0'$
#4020
0b"
#4022
0v#
0"$
#4026
0U"
#4035
0t#
#4036
0n#
#4041
08"
#4059
0b#
#4064
08$
#4067
0z
#4088
0b
#4089
0!$
#4093
0j"
0n"
#4105
0<#
#4117
0$"
#4122
0t!
#4124
0T
#4125
0O
#4129
0c#
#4130
0U#
#4134
0H"
#4139
07"
#4140
0,$
#4142
09"
#4146
0h#
#4148
05$
#4159
07$
#4168
0("
#4176
0x
#4181
0P#
#4183
06$
#4195
0_"
#4240
0[
#4241
03"
#4243
0."
#4245
0i!
#4251
0o#
#4260
0u!
#4263
0(#
#4286
0{
#4309
0I"
#4322
0I#
#4329
0'#
#4334
0N!
0M
#4335
0]!
#4347
0($
#4350
0w"
#4363
0k
#4425
0-#
05#
#4430
0u
#4433
09$
#4466
0k"
#4476
0|
0`!
#4478
0=#
#4488
0F#
#4498
0|"
#4499
0V#
#4503
0h"
#4506
07#
#4509
0Q!
#4510
0y
#4516
0i#
#4520
0s"
#4521
0:#
#4525
0.#
#4530
0o"
#4534
1S!
#4549
0z#
#4568
0w#
#4571
0y"
#4573
0_#
#4604
0>"
0E"
#4642
0S
#4648
0p"
#4650
0U
#4665
0p#
#4666
0M"
#4667
0]
#4675
0X"
#4681
0P
#4682
0O#
#4692
0m
#4694
0S#
#4701
1R
#4710
0d#
#4721
0c"
#4728
0s
#4748
0p
#4767
0f
#4772
0h
#4787
0#$
#4802
0:$
#4822
0X
0j!
#4827
0J"
#4834
0l"
#4837
0;"
#4840
0.$
#4866
0)"
#4871
0J!
#4873
0^!
#4875
1Q
08#
#4878
0R!
#4895
0a"
#4930
05"
#4932
0%#
#4940
0z"
#4950
04"
#4953
0+"
#4976
0%"
#4979
0R"
#4992
0o!
#5004
0!"
0v!
#5008
0|!
#5021
0i"
#5028
0)#
#5037
0P!
#5045
0Y"
#5063
0J#
#5082
0e#
#5092
0d"
#5123
0/#
#5135
0+$
#5176
0a!
#5180
0v"
#5183
0P"
0s#
#5187
0c!
#5189
0H#
#5194
1T!
#5198
0~"
0K"
#5199
0Y#
0u"
0Q#
#5204
0M#
#5210
0/$
#5217
0;#
#5224
0l#
#5242
1>$
#5257
0|#
#5274
0}#
#5304
0@"
0)$
#5305
0G"
#5349
0X!
0S"
#5377
0}!
#5378
0O"
#5401
0x!
#5402
0X#
#5403
0_!
#5432
0K#
#5434
0r#
#5459
0k#
#5461
0!#
#5473
01#
#5522
0l!
#5528
0q!
#5543
0A"
#5550
0*#
#5571
0R#
#5575
09#
#5624
04#
#5632
0&#
#5676
0&"
#5692
1Z!
#5697
0r!
#5703
0#"
#5704
0d!
#5705
0~!
#5732
0g!
#5778
0a#
#5830
02#
#5846
1;$
#5924
0>#
#5926
0,"
#6028
0[!
#6052
0m!
#6158
0V
#6159
0y!
#6467
1w
#6540
0W
0z!
#6590
1@$
#6610
1<$
#6671
1C$
#7114
0{!
#7115
0/"
#7207
0F!
0$
#7221
1=$
#7267
1U!
#7501
1v
#7777
1?$
#7810
00"
#7848
0Y
#7962
0A$
#8180
0D!
0%
#8413
02!
07
#8429
03!
06
#8481
0>!
0+
#8533
00!
09
#8580
0C!
0&
#8612
0.!
0;
#8794
01!
08
#8863
0=!
0,
#8872
0/!
0:
#8896
04!
05
#9020
0B$
#9021
0A!
0(
#9055
0(!
0A
#9119
05!
04
#9150
01"
#9190
0Z
#9221
0,!
0=
#9263
0+!
0>
#9348
0?!
0*
#9403
0;!
0.
#9465
0@!
0)
#9497
0<!
0-
#9550
0*!
0?
#9606
0)!
0@
#9681
0<"
#9682
02"
#9738
06!
03
#9754
0-!
0<
#9901
0'!
0B
#10129
0B!
0'
#10219
0="
#10224
0B"
#10236
0:!
0/
#10251
09!
00
#10310
08!
01
#10330
07!
02
#10400
0%!
0D
#10727
0D$
#10940
0Z"
#10949
0D"
#10962
1&!
1C
#12023
0\
#12027
0["
#12737
0\"
#12748
0_
#13599
0a
#13640
0^"
#14037
0E!
0E
#14298
0q"
#14331
0g"
#16453
0c
#16457
0r"
#17660
0##
#17663
0{"
#18041
0$#
#18042
0d
#18898
0?#
#18930
0e
#19427
0g
#19428
0@#
#20613
0B#
#20623
0i
#21328
0Z#
#21336
0E#
#22518
0[#
#22529
0j
#23046
0\#
#23052
0l
#24250
0n
#24293
0^#
#24782
0o
#24783
0q
#25650
0x#
#25679
0r
#26341
0%$
#26381
0y#
#27104
01$
#27106
0&$
#28128
0t
#28132
02$
#100000
b1 #
0F
#100659
1H!
#105135
0Q
#105141
1J!
#105263
0Z!
#200000
b11 #
b10 #
1F
#200659
1I!
#200765
0H!
#204132
1f!
#204451
1u
#204456
1<#
#204496
1'$
#204543
1_"
#204573
1[
#204574
13"
#204749
1F#
#204802
1|"
#204822
1`!
#204831
1k
#204834
1s"
0J!
#204841
1h"
#204845
1Q!
#204850
1Q
#204858
1($
#204876
1m
#204879
1_#
#204896
1z#
#204940
1>"
1E"
#204984
1S
#205039
1]
#205062
1s
#205104
1p
#205118
1f
#205122
1h
#205177
1X
#205206
1R!
#205234
1a"
#205262
1+"
14"
#205300
1%#
#205333
1i"
#205341
1!"
#205345
1|!
#205354
1R"
#205381
1=#
#205407
1H#
#205459
1~"
#205491
1u"
#205501
1+$
#205507
18$
#205533
1X#
#205558
1|#
#205597
1@"
#205598
1G"
#205633
0S!
#205643
1J!
#205660
1M#
#205697
1O"
#205717
1S"
#205719
1r#
#205753
1Z!
#205756
1X!
#205757
1a!
#205762
1k#
#205775
11#
#205950
14#
#205957
1&#
#206082
1a#
#206117
1q!
#206138
1#"
#206213
1g!
#206336
0T!
#206413
1[!
#206434
1}!
#208361
0U!
#210394
1'!
1B
#211937
0&!
0C
#300000
b11 #
0F
#300659
1H!
#304431
0($
#304600
0~"
0&#
#304737
0r#
#304748
0H#
#304755
0O"
#304769
0a"
#304790
0k#
#304791
0a#
#304793
0+"
04"
#304798
01#
#304841
0G"
#304842
0@"
#304914
0S"
#304940
0=#
#304953
0u"
0i"
#304984
0X#
#304985
0M#
#305010
04#
#305032
0|#
#305044
0+$
#305048
08$
#305134
0J!
#305138
1S!
#305263
0Z!
#305266
0X!
0a!
#305665
0#"
#305673
0q!
0g!
#305798
1T!
#305945
0[!
#305957
0}!
#307609
1A$
#307871
1U!
#308566
0A$
#308710
1B$
#309624
0B$
#309818
0'!
0B
#311566
1&!
1C
#400000
b111 #
b101 #
b100 #
1F
#400689
1O!
#400765
0I!
0H!
#402114
1\!
#402490
1M
#402492
1]!
#402548
1F$
#402788
1P
#403044
1^!
#403543
1x!
#403544
1_!
#404339
1V
#404340
1y!
#404489
0f!
#404710
1W
1z!
#404769
1($
#404808
0u
#404835
0'$
#404870
0<#
#404960
0_"
#405005
0[
#405006
03"
#405071
1~"
#405072
1&#
#405131
1)$
#405174
0F#
#405183
1r#
#405205
0($
#405225
1H#
#405234
1a"
